1904,1922
1979,2000
1978,2000
1990,1996
1911,1983
1951,1997
1964,1996
1955,2000
1930,1998
1985,1997
1965,1984
1927,1975
1920,1992
1991,2000
1999,2000
1960,1982
1917,1970
1906,1978
1943,2000
1965,1973
1918,1943
1976,2000
1925,1956
1905,1969
1962,1962
1996,2000
1926,1983
1902,1945
1986,1994
1996,2000
1916,1988
1938,1997
1932,1951
1988,2000
1927,2000
1945,1945
1971,1978
1901,1976
1907,1977
1906,1926
1974,1985
1994,2000
1988,2000
1997,2000
1932,1956
1997,2000
1939,2000
1988,2000
1931,1981
1965,1976
1953,2000
1966,1981
1979,2000
1976,2000
1954,1998
1907,1961
1921,1972
1973,1987
1925,1979
1945,2000
1977,2000
1985,2000
1905,1962
1945,1970
1939,1946
1906,1952
1915,1937
1965,2000
1974,2000
1947,1963
1933,1998
1991,2000
1952,2000
1944,1996
1964,1976
1982,2000
1984,2000
1922,1993
1993,1997
1903,1926
1926,1973
1967,1984
1926,1985
1930,1959
1979,2000
1921,1934
1980,1984
1914,1944
1993,2000
1961,2000
1918,1956
1988,1990
1952,2000
1917,1961
1917,1923
1931,1967
1976,2000
1937,1967
1941,1952
1932,1946
1939,1941
1960,2000
1919,1925
1971,2000
1931,1989
1992,2000
1919,1995
1932,1935
1917,1982
1907,1927
1968,1976
1901,1925
1984,1988
1988,2000
1951,1991
1957,1996
1971,2000
1923,1955
1922,1985
1969,1981
1975,1979
1949,2000
1942,1988
1904,1920
1938,1953
1918,1941
1929,1957
1939,1993
1950,1976
1996,2000
1964,2000
1997,2000
1996,2000
1975,2000
1985,2000
1982,2000
1935,1956
1947,1998
1983,2000
1912,1914
1918,1978
1927,1928
1983,2000
1940,2000
1938,2000
1917,1950
1906,1974
1908,1910
1919,1980
1940,2000
1947,1964
1948,1951
1973,1978
1950,1958
1913,1979
1919,1963
1961,2000
1906,1956
1918,1973
1920,1948
1933,1958
1902,1973
1971,2000
1929,1988
1972,2000
1952,1971
1947,1947
1908,1940
1955,2000
1974,2000
1952,1991
1931,1948
1911,1969
1902,1920
1976,2000
1904,1913
1932,2000
1995,2000
1944,2000
1909,1948
1943,2000
1969,2000
1925,1929
1978,2000
1990,2000
1941,1962
1970,2000
1992,2000
1970,1993
1963,2000
1957,1990
1962,2000
1997,2000
1986,2000
1993,2000
1950,1981
1912,1912
1916,1950
1939,1984
1974,2000
1903,1911
1959,1981
1966,2000
1937,1967
1994,2000
1903,1919
1940,2000
1984,2000
1987,2000
1929,1981
1959,1969
1961,2000
1966,1977
1963,1978
1944,1944
1917,1950
1974,1979
1956,1970
1990,1993
1920,1921
1957,1957
1925,1990
1953,2000
1977,2000
1900,1929
1998,2000
1992,2000
1990,2000
1978,2000
1923,1954
1920,1925
1987,2000
1973,2000
1913,1928
1909,1982
1990,2000
1915,1993
1918,1962
1905,1970
1943,2000
1980,2000
1971,2000
1913,1968
1956,1958
1937,1998
1946,2000
1905,1935
1946,1957
1948,1983
1969,1980
1980,2000
1960,2000
1958,1981
1959,2000
1940,2000
1920,1982
1988,2000
1924,1995
1929,1967
1903,1926
1924,1980
1912,1951
1976,2000
1974,2000
1985,2000
1922,2000
1954,2000
1938,1990
1984,2000
1991,2000
1948,2000
1999,2000
1955,1999
1996,2000
1965,1995
1924,1981
1995,2000
1988,2000
1935,2000
1922,1941
1977,2000
1954,1957
1974,2000
1980,1988
1928,1968
1933,1974
1960,1965
1919,1926
1971,2000
1941,1981
1928,1999
1996,2000
1994,2000
1938,2000
1946,1994
1928,1952
1920,1983
1968,2000
1974,2000
1961,2000
1969,1982
1985,2000
1916,1993
1938,1976
1948,2000
1957,1978
1927,1938
1949,1983
1987,2000
1943,2000
1909,1986
1933,2000
1927,1928
1988,2000
1966,2000
1988,2000
1936,2000
1997,2000
1928,1965
1920,1944
1945,1968
1915,1980
1971,2000
1929,1943
1996,2000
1963,1982
1910,1970
1975,1977
1945,1993
1949,2000
1974,2000
1938,1983
1930,2000
1902,1906
1905,1975
1955,2000
1963,1963
1910,1924
1933,1936
1966,2000
1995,2000
1913,1955
1918,1943
1997,2000
1935,1937
1994,1998
1962,2000
1955,2000
1954,1964
1988,2000
1928,1937
1944,1959
1964,1976
1978,2000
1938,1979
1956,1961
1956,2000
1923,1995
1936,1987
1941,1954
1992,2000
1972,1984
1975,2000
1992,2000
1937,1960
1944,1945
1962,1998
1958,1979
1967,2000
1935,2000
1934,1940
1994,2000
1952,1992
1925,2000
1949,2000
1949,2000
1907,1941
1995,2000
1922,1923
1910,1969
1914,1989
1948,2000
1963,2000
1995,2000
1938,1983
1902,1954
1963,2000
1909,1964
1945,2000
1902,1941
1908,1925
1996,2000
1900,1966
1948,2000
1923,1961
1948,1983
1989,2000
1974,2000
1937,2000
1957,2000
1946,2000
1928,1976
1962,2000
1900,1940
1955,2000
1923,1973
1906,1906
1905,1922
1948,1988
1992,2000
1941,2000
1929,1966
1972,2000
1951,1962
1923,1988
1905,1951
1960,1998
1965,2000
1953,1983
1979,2000
1975,2000
1960,2000
1905,1925
1918,1974
1991,2000
1966,2000
1953,2000
1983,2000
1963,2000
1948,1990
1902,1946
1983,1996
1986,2000
1970,2000
1959,2000
1958,2000
1990,2000
1971,1971
1901,1901
1909,1930
1940,2000
1958,1989
1935,1946
1941,2000
1964,2000
1908,1964
1920,1928
1983,2000
1904,1919
1965,2000
1934,1959
1940,1976
1999,2000
1971,2000
1936,1965
1966,2000
1995,2000
1922,1995
1915,1928
1934,1984
1918,1980
1981,1994
1951,1966
1964,1990
1951,2000
1908,1952
1970,2000
1946,2000
1961,1962
1972,2000
1989,2000
1960,2000
1948,1996
1981,1989
1985,2000
1943,1975
1969,1983
1917,1958
1955,2000
1904,1965
1931,1957
1991,2000
1964,1966
1937,1962
1908,1980
1955,1961
1926,1989
1984,2000
1985,2000
1942,1994
1964,2000
1952,2000
1971,2000
1981,2000
1984,2000
1910,1929
1960,2000
1972,2000
1950,1995
1973,1986
1926,1975
1954,1962
1957,2000
1990,2000
1981,2000
1943,1977
1998,2000
1907,1964
1976,2000
1943,1954
1961,1986
1943,2000
1930,1957
1926,1927
1994,2000
1949,1990
1958,2000
1930,2000
1915,1935
1958,2000
1945,1998
1961,1982
1963,1983
1942,1960
1915,1941
1965,2000
1945,1977
1918,1932
1902,1938
1904,1934
1992,2000
1995,2000
1943,2000
1942,1975
1946,1964
1942,2000
1939,1985
1934,1945
1931,1957
1993,2000
1906,1920
1903,1920
1935,1945
1917,1927
1984,2000
1992,2000
1999,2000
1986,1987
1989,1997
1919,1921
1952,1972
1971,2000
1951,1967
1966,1992
1944,2000
1959,1994
1901,1904
1958,2000
1994,2000
1965,1994
1968,1996
1966,2000
1999,2000
1931,1951
1948,1960
1997,2000
1949,1977
1952,2000
1998,2000
1950,1993
1934,1974
1987,2000
1934,1950
1947,1961
1961,1999
1950,1970
1941,1967
1939,1995
1911,1966
1985,1986
1963,2000
1935,1941
1936,2000
1908,1943
1946,1996
1909,1984
1936,1966
1937,1990
1921,1942
1927,2000
1972,2000
1985,2000
1912,1912
1996,2000
1969,1990
1969,1979
1937,1967
1923,1939
1902,1927
1957,1963
1932,1935
1909,1928
1948,1962
1940,2000
1947,1964
1989,2000
1939,2000
1985,2000
1919,1933
1964,2000
1964,2000
1955,1983
1997,2000
1973,2000
1937,2000
1987,2000
1917,1927
1951,1978
1935,1980
1926,1959
1972,2000
1950,1952
1984,1986
1976,2000
1949,1964
1964,2000
1987,2000
1944,1996
1914,1958
1990,2000
1969,2000
1915,1949
1930,1931
1913,1937
1901,1977
1942,1989
1973,2000
1967,2000
1976,2000
1993,2000
1983,2000
1997,2000
1948,2000
1920,1933
1982,2000
1917,1938
1916,1921
1949,1980
1955,1970
1955,1990
1958,1970
1948,1994
1907,1918
1968,1978
1998,2000
1916,1977
1970,2000
1933,1985
1955,1999
1985,2000
1923,1946
1977,2000
1909,1940
1946,1957
1958,2000
1916,1988
1992,1996
1965,1993
1992,2000
1980,2000
1900,1903
1981,1985
1920,1992
1947,1980
1971,2000
1993,2000
1948,2000
1908,1977
1904,1904
1912,1985
1976,2000
1964,2000
1917,1971
1965,2000
1942,1984
1944,1994
1962,1976
1988,2000
1933,1966
1909,1910
1909,1920
1959,2000
1986,2000
1961,2000
1972,2000
1918,1946
1941,1945
1966,1990
1938,2000
1963,1987
1990,2000
1905,1946
1917,1947
1932,1986
1930,2000
1912,1975
1964,1996
1992,2000
1921,1970
1945,1951
1901,1910
1948,1961
1914,1989
1927,1961
1925,1925
1938,1954
1939,1987
1980,2000
1901,1909
1980,2000
1999,2000
1909,1969
1922,1944
1981,1983
1980,1990
1914,1953
1978,1999
1939,1940
1964,2000
1903,1910
1979,1988
1956,1973
1957,1966
1944,2000
1957,1978
1967,1970
1903,1935
1940,2000
1994,2000
1927,1963
1972,2000
1953,2000
1912,1944
1914,1978
1971,1990
1998,2000
1948,1950
1994,2000
1922,1999
1975,2000
1927,1970
1965,1971
1944,2000
1968,1998
1936,1939
1985,2000
1955,1975
1984,2000
1971,2000
1992,2000
1977,1991
1955,1994
1900,1905
1985,2000
1958,2000
1954,1961
1920,1960
1976,2000
1931,1992
1910,1959
1962,1967
1954,1986
1975,1989
1988,2000
1903,1928
1995,2000
1998,2000
1939,1955
1912,1976
1945,1965
1912,1915
1997,2000
1992,2000
1919,1947
1992,2000
1909,1986
1928,1970
1983,2000
1958,1971
1953,2000
1946,1970
1987,2000
1921,1950
1910,1937
1995,2000
1986,2000
1948,1951
1969,1981
1953,1954
1910,1944
1994,2000
1955,2000
1999,2000
1900,1926
1900,1904
1978,1982
1938,1963
1912,1916
1963,2000
1916,1950
1964,1984
1913,1965
1986,2000
1919,1921
1983,2000
1903,1949
1964,1970
1996,2000
1953,1995
1953,2000
1964,2000
1982,2000
1995,1995
1949,1996
1900,1942
1913,1950
1971,2000
1910,1934
1950,1985
1960,2000
1956,1965
1915,1971
1989,2000
1955,1956
1986,2000
1940,1945
1975,1993
1916,1917
1945,1991
1989,2000
1931,1969
1922,1980
1950,1992
1987,2000
1906,1938
1976,2000
1952,2000
1970,1986
1915,1972
1903,1920
1994,1995
1935,1999
1940,1982
1998,2000
1916,1983
1934,1976
1903,1951
1982,2000
1997,2000
1991,2000
1910,1935
1947,1951
1978,2000
1980,1988
1960,2000
1999,2000
1947,1994
1911,1954
1904,1975
1985,2000
1976,2000
1951,1994
1929,1950
1990,2000
1933,1983
1921,1979
1967,2000
1906,1973
1982,2000
1921,1965
1987,2000
1998,2000
1944,1966
1986,1991
1952,2000
1980,2000
1940,1959
1936,1964
1919,1977
1932,1958
1942,1980
1945,1985
1919,1921
1958,2000
1949,1986
1961,2000
1953,2000
1919,1994
1952,1976
1980,2000
1978,2000
1949,2000
1962,1995
1963,1996
1950,2000
1933,1960
1918,1973
1915,1940
1939,1949
1958,1986
1971,1982
1978,2000
1946,1993
1922,1974
1995,2000
1985,2000
1929,1932
1937,1968
1955,1964
1938,1987
1932,1946
1984,2000
1973,1973
1960,1988
1926,2000
1988,2000
1987,1994
1926,1979
1982,2000
1951,1997
1995,2000
1900,1944
1946,1999
1909,1980
1906,1961
1964,1994
1919,1926
1911,1958
1907,1917
1990,2000
1905,1930
1934,1947
1978,2000
1997,2000
1940,1987
1925,1971
1979,1985
1980,2000
1965,2000
1946,2000
1919,1995
1948,1952
1940,1987
1926,1997
1983,2000
1931,1943
1978,1978
1908,1937
1953,1960
1931,2000
1997,2000
1981,1982
1953,2000
1944,1968
1970,2000
1951,1978
1985,1985
1951,2000
1991,2000
1984,2000
1922,1937
1968,2000
1978,2000
1905,1928
1903,1960
1910,1926
1987,1997
1903,1938
1928,1972
1903,1908
1913,1978
1968,2000
1921,1966
1950,1991
1988,2000
1912,1932
1919,1920
1926,1976
1918,1973
1981,2000
1929,1998
1978,2000
1923,1995
1933,1996
1924,1951
1956,2000
1920,1935
1924,1944
1956,2000
1928,1969
1952,2000
1946,1982
1933,2000
1969,2000
1929,1980
1974,2000
1932,1990
1970,1995
1903,1982
1904,1909
1993,2000
1996,2000
1936,1989
1976,2000
1925,1944
1941,2000
1958,2000
1993,2000
1972,1984
1988,2000
1907,1920
1935,1974
1924,1986
1909,1942
1919,1956
1918,1970
1963,1973
1904,1927
1958,1974
1965,2000
1945,1988
1996,2000
1914,1917
1948,1975
1991,2000
1925,1963
1957,1972
1981,2000
1952,2000
1944,1955
1991,2000
1980,2000
1930,1934
1979,2000
1930,1985
1903,1982
1905,1928
1955,2000
1977,2000
1933,1962
1979,2000
1995,2000
1924,2000
1997,2000
1993,2000
1982,1982
1972,1997
1977,2000
1998,2000
1915,1948
1990,2000
1968,2000
1980,1990
1980,1981
1917,1982
1940,1993
1959,1974
1937,2000
1967,2000
1986,2000
1979,2000
1951,1971
1941,1953
1969,1975
1957,1985
1921,1974
1989,2000
1914,1932
1947,1992
1916,1986
1968,1998
1906,1947
1926,1995
1927,1988
1934,1979
1963,2000
1900,1953
1975,2000
1995,2000
1960,1984
1995,2000
1978,1985
1936,1970
1999,2000
1940,1977
1928,2000
1971,2000
1900,1951
1962,2000
1977,2000
1941,2000
1901,1952
1961,1987
1926,1927
1944,2000
1905,1958
1968,2000
1920,1973
1957,1997
1993,2000
1982,1997
1944,1954
1911,1979
1974,2000
1999,2000
1907,1945
1929,1951
1911,1958
1929,2000
1984,2000
1967,1980
1950,1996
1922,1986
1995,2000
1998,2000
1922,1930
1996,2000
1956,2000
1954,1956
1998,2000
1926,1978
1923,1964
1931,1958
1969,2000
1995,2000
1931,1947
1979,1983
1944,2000
1939,1968
1912,1977
1984,2000
1977,2000
1971,2000
1967,1995
1998,2000
1979,2000
1951,1973
1907,1947
1976,1997
1989,2000
1970,2000
1927,1930
1924,1947
1978,2000
1900,1928
1946,1996
1975,2000
1957,1991
1903,1920
1913,1923
1905,1984
1944,2000
1950,1955
1981,2000
1989,2000
1997,2000
1928,1973
1982,2000
1943,1943
1987,2000
1988,2000
1914,1922
1995,2000
1972,2000
1950,1973
1966,1998
1907,1982
1937,1966
1994,2000
1917,1951
1947,1988
1904,1937
1920,1933
1949,1958
1935,1939
1995,2000
1906,1908
1911,1913
1980,1989
1948,1997
1986,2000
1935,1942
1944,1977
1927,1986
1935,1978
1976,2000
1993,2000
1936,2000
1945,2000
1957,1973
1951,2000
1941,1998
1942,1946
1983,2000
1941,1963
1957,1989
1928,2000
1908,1914
1926,1988
1916,1990
1960,1980
1981,2000
1930,1994
1951,2000
1957,2000
1990,1995
1975,2000
1950,1952
1926,1943
1930,2000
1979,2000
1901,1937
1922,1948
1932,1989
1944,1977
1997,2000
1963,2000
1912,1917
1976,2000
1989,2000
1930,1956
1903,1912
1955,1983
1990,2000
1917,1989
1942,1995
1923,1934
1998,2000
1937,2000
1956,1993
1963,2000
1955,1999
1956,2000
1924,1982
1966,1993
1939,1980
1922,1936
1901,1915
1990,2000
1994,2000
1955,2000
1997,2000
1980,2000
1954,2000
1962,1979
1927,1972
1984,1995
1948,1986
1901,1952
1923,1977
1983,2000
1971,1981
1903,1912
1903,1962
1950,1999
1925,1937
1953,1990
1997,2000
1956,1969
1939,1994
1984,1985
1908,1971
1971,2000
1919,1970
1990,2000
1944,1960
1979,2000
1951,2000
1980,2000
1933,1977
1985,1998
1957,1960
1995,2000
1973,2000
1923,1959
1973,2000
1970,1972
1973,2000
1961,1985
1959,1964
1979,2000
1918,1955
1930,1937
1996,2000
1912,1921
1999,2000
1919,1962
1908,1947
1956,1992
1923,2000
1974,2000
1905,1927
1921,1973
1953,2000
1965,1975
1970,2000
1946,1956
1908,1985
1928,1940
1927,1976
1995,2000
1952,1965
1922,1939
1952,2000
1935,1987
1952,1964
1976,2000
1988,2000
1914,1922
1932,1970
1986,1995
1965,1995
1920,1932
1919,1922
1942,1986
1981,1994
1957,2000
1918,1993
1918,1938
1960,2000
1987,2000
1916,1975
1944,1966
1925,1938
1989,2000
1970,2000
1931,1935
1997,2000
1965,2000
1967,2000
1970,1990
1925,1964
1974,1997
1975,2000
1995,2000
1997,2000
1996,2000
1924,1944
1984,2000
1951,1969
1920,1958
1985,2000
1970,2000
1900,1908
1980,2000
1966,2000
1963,2000
1970,1995
1983,2000
1941,2000
1964,2000
1956,2000
1951,2000
1905,1975
1976,1984
1972,1993
1974,2000
1943,1971
1991,2000
1924,1964
1922,1946
1909,1920
1954,1991
1946,1970
1936,1938
1990,2000
1994,2000
1962,2000
1971,2000
1903,1970
1986,2000
1989,2000
1962,2000
1959,2000
1949,1957
1952,2000
1968,2000
1941,1967
1937,1966
1932,1988
1997,2000
1984,2000
1942,1990
1923,1938
1918,1950
1978,1999
1935,1997
1917,1977
1931,1949
1976,2000
1942,1991
1959,2000
1964,2000
1900,1934
1989,1998
1936,1970
1965,2000
1979,2000
1967,1999
1946,1967
1921,1972
1944,2000
1911,1930
1994,2000
1956,1960
1988,2000
1964,1997
1930,1968
1977,2000
1901,1963
1971,1981
1909,1950
1942,1976
1938,1988
1996,2000
1901,1967
1918,1989
1951,2000
1927,1986
1928,2000
1914,1987
1962,2000
1951,1963
1922,1959
1999,2000
1994,2000
1979,1986
1931,2000
1944,1990
1946,1972
1982,1992
1959,1965
1917,1957
1979,1984
1916,1924
1922,1945
1956,1959
1973,2000
1994,2000
1937,1937
1972,1988
1940,2000
1954,1977
1978,1996
1910,1981
1979,2000
1978,2000
1983,2000
1959,2000
1965,2000
1983,2000
1999,2000
1990,2000
1908,1916
1908,1966
1973,1998
1970,1991
1986,2000
1925,1941
1948,2000
1938,1938
1911,1983
1962,1977
1919,1932
1915,1978
1988,2000
1961,1969
1928,1950
1945,2000
1988,2000
1937,1982
1928,1988
1941,2000
1989,2000
1922,1960
1950,1965
1986,2000
1992,2000
1986,2000
1998,2000
1978,2000
1976,2000
1982,2000
1945,1953
1951,2000
1930,2000
1907,1924
1941,1990
1909,1924
1958,2000
1929,1982
1993,2000
1928,1946
1957,2000
1980,2000
1936,1937
1940,2000
1939,1970
1962,2000
1932,1982
1911,1984
1975,1992
1988,2000
1915,1954
1925,1939
1984,2000
1986,2000
1997,2000
1954,1990
1981,2000
1943,1965
1983,2000
1914,1982
1986,2000
1951,2000
1925,1927
1976,1986
1920,1920
1981,2000
1978,2000
1955,1994
1940,2000
1994,1996
1985,2000
1917,1974
1979,1982
1983,2000
1910,1921
1912,1989
1939,2000
1913,1955
1945,2000
1969,1995
1985,2000
1951,1954
1954,1987
1904,1971
1941,2000
1967,1980
1972,1974
1995,2000
1932,1962
1924,1937
1985,1994
1949,1992
1990,2000
1952,1958
1969,2000
1922,1931
1988,2000
1961,2000
1957,1967
1922,1967
1902,1948
1905,1937
1934,1960
1962,2000
1950,1963
1936,1997
1911,1966
1915,1988
1913,1986
1976,2000
1968,1978
1978,2000
1972,2000
1913,1980
1902,1918
1909,1972
1953,2000
1988,2000
1905,1974
1974,2000
1921,1926
1961,1990
1944,1997
1968,2000
1975,1999
1943,2000
1974,2000
1938,1989
1972,2000
1930,1985
1947,1974
1930,2000
1903,1920
1931,1992
1970,2000
1955,2000
1981,2000
1909,1988
1977,2000
1988,2000
1979,1979
1984,2000
1919,1958
1996,2000
1991,2000
1990,2000
1941,1973
1980,2000
1925,1955
1953,2000
1940,1994
1922,1956
1984,2000
1921,2000
1906,1923
1990,2000
1996,2000
1920,1951
1910,1955
1950,2000
1952,1990
1988,2000
1991,2000
1977,2000
1906,1976
1907,1965
1978,2000
1979,2000
1973,2000
1967,2000
1974,2000
1966,2000
1965,2000
1939,1962
1998,2000
1914,1988
1970,2000
1953,1988
1953,1984
1979,2000
1943,2000
1966,2000
1965,2000
1951,2000
1958,2000
1928,1979
1933,1971
1973,2000
1929,1936
1902,1928
1944,1976
1914,1918
1969,1983
1993,1994
1924,1961
1956,2000
1976,1988
1967,2000
1982,2000
1947,1994
1904,1955
1924,1938
1971,2000
1967,2000
1987,2000
1925,1950
1943,1984
1995,2000
1961,1985
1927,1969
1981,2000
1905,1948
1974,2000
1925,1937
1904,1935
1903,1980
1977,1978
1930,1991
1991,2000
1906,1933
1958,1995
1999,2000
1965,2000
1918,1965
1908,1916
1929,2000
1928,1968
1998,2000
1990,1991
1976,2000
1994,2000
1975,2000
1913,1975
1984,2000
1937,1996
1943,2000
1905,1951
1906,1926
1966,2000
1983,2000
1997,2000
1994,2000
1967,1997
1905,1947
1903,1973
1907,1972
1943,1970
1907,1920
1987,2000
1920,1975
1975,2000
1964,1990
1943,2000
1924,1950
1961,2000
1984,2000
1987,1990
1939,2000
1903,1956
1977,2000
1998,2000
1937,2000
1959,2000
1922,1945
1923,1937
1998,2000
1927,1993
1944,1999
1959,1973
1961,1965
1912,1983
1989,1996
1920,1943
1905,1911
1994,2000
1944,2000
1933,2000
1927,1996
1965,2000
1942,2000
1944,1977
1902,1979
1976,1986
1949,1955
1963,2000
1969,1979
1978,2000
1912,1930
1936,1972
1964,1993
1928,1947
1955,1997
1998,2000
1969,2000
1950,1992
1924,1954
1990,2000
1964,1980
1944,1953
1986,2000
1956,1986
1974,1979
1950,1999
1962,2000
1915,1931
1956,1990
1961,1999
1901,1948
1963,2000
1998,2000
1993,2000
1937,1982
1981,2000
1937,1997
1955,2000
1930,1982
1926,2000
1908,1976
1972,2000
1916,1946
1936,1998
1983,2000
1953,2000
1970,2000
1911,1975
1952,1994
1970,2000
1962,2000
1986,2000
1941,1979
1957,2000
1916,1932
1917,1966
1977,1999
1916,1972
1983,2000
1980,2000
1974,1980
1996,2000
1997,2000
1903,1950
1945,1977
1943,1989
1977,2000
1949,2000
1996,2000
1963,1964
1908,1946
1925,1983
1904,1981
1949,2000
1904,1936
1987,2000
1951,1981
1950,2000
1998,2000
1953,2000
1906,1915
1928,1938
1984,2000
1907,1917
1909,1924
1922,1937
1991,2000
1982,2000
1909,1953
1972,2000
1934,1985
1930,1988
1980,2000
1912,1967
1965,2000
1973,1979
1964,1993
1923,1947
1905,1949
1972,2000
1938,1975
1989,1994
1935,1959
1939,1952
1967,1998
1933,1968
1924,2000
1936,2000
1979,2000
1939,1997
1923,1943
1937,1956
1940,2000
1946,1972
1987,2000
1950,1974
1911,1929
1955,1983
1942,1956
1981,1985
1912,1988
1923,1967
1951,2000
1947,2000
1919,1935
1920,1927
1930,1945
1912,1918
1911,1942
1994,2000
1935,1981
1985,2000
1984,2000
1922,1965
1977,1990
1925,1950
1981,2000
1958,1975
1930,1944
1925,1951
1944,1989
1932,1952
1992,2000
1968,2000
1931,1980
1922,1956
1999,2000
1925,1998
1975,2000
1981,2000
1921,1994
1952,1969
1991,2000
1947,1947
1980,2000
1965,2000
1906,1948
1977,1980
1907,1961
1975,1982
1917,1985
1903,1905
1984,2000
1965,2000
1934,1983
1956,1957
1973,2000
1916,1946
1947,2000
1929,1966
1952,1966
1955,2000
1958,1976
1954,1968
1920,1965
1935,1963
1901,1918
1978,2000
1905,1926
1964,1996
1951,1983
1939,1978
1950,1999
1906,1924
1904,1960
1934,2000
1998,2000
1986,2000
1911,1953
1915,1945
1951,1976
1922,1923
1920,1935
1908,1910
1977,2000
1990,2000
1921,1938
1926,1988
1906,1937
1977,1992
1907,1981
1972,2000
1904,1929
1999,2000
1917,1930
1907,1907
1920,1944
1905,1921
1973,2000
1997,2000
1959,1991
1983,2000
1991,2000
1948,1961
1907,1968
1953,1966
1978,1995
1982,2000
1963,2000
1925,2000
1940,1969
1921,1983
1925,1928
1915,1940
1997,2000
1971,2000
1925,1943
1939,1990
1989,2000
1993,2000
1939,2000
1944,1979
1948,2000
1968,2000
1993,2000
1977,2000
1947,1948
1970,1979
1983,2000
1920,1972
1927,1938
1974,2000
1949,1991
1963,2000
1905,1975
1986,2000
1944,2000
1979,1989
1999,2000
1928,1971
1927,1964
1906,1970
1929,1931
1945,1966
1979,2000
1912,1929
1958,2000
1963,1990
1944,1983
1931,2000
